[WARN] Framework/CentralConfig/CentralConfig.cc:319: FillMap: Explicit request to parse a file without validation. Filename = ../../config/DManagerRegisterConfig.xml
[WARN] Framework/CentralConfig/CentralConfig.cc:319: FillMap: Explicit request to parse a file without validation. Filename = ../../config/MagneticField.xml
[WARN] Framework/CentralConfig/CentralConfig.cc:319: FillMap: Explicit request to parse a file without validation. Filename = config/SpectrumFitter.xml
[WARN] Framework/CentralConfig/CentralConfig.cc:319: FillMap: Explicit request to parse a file without validation. Filename = ../../config/RunFixedSettingsManager.xml
[WARN] Framework/CentralConfig/CentralConfig.cc:651: CheckFingerprints: No configuration-time MD5 fingerprint found for the following configuration files. Checking the validity of these configuration files is impossible.
  - DManagerRegisterConfig
  - SpectrumFitter

[WARN] Framework/CentralConfig/CentralConfig.cc:682: CheckFingerprints: Incorrect MD5 fingerprints were found for the following configuration files. This implies this configuration file has been altered.
  - MagneticField
  - RunFixedSettingsManager

[INFO] Framework/Detector/Detector.cc:67: Detector: Config file for list of Managers: /afs/cern.ch/user/m/mpavin/Work/analysistools/config/DManagerRegisterConfig.xml
[WARN] Framework/Managers/LogInfo/RunFixedSettingsManager.cc:59: GenericGetData: 
!!!!!!!!!!!!!!!!!!!!!!!!!!!!!!!!!!!!!!!!!!!!!!!!!!!!!!!!!!!!!!!!!!
!!! Fetching run settings from                                 !!!
!!! RunFixedSettingsManager.                                   !!!
!!! Please make sure that this is intentional.                 !!!
!!!!!!!!!!!!!!!!!!!!!!!!!!!!!!!!!!!!!!!!!!!!!!!!!!!!!!!!!!!!!!!!!!
    (MagneticField magneticFieldId)

[INFO] Framework/Detector/MagneticField/MagneticField.cc:418: Update: field id=20
[INFO] Framework/Detector/MagneticField/MagneticField.cc:419: Update: loading /afs/cern.ch/na61/ReleasesDB/v2/NA49/DB/MF/calc-20g+full.root
[INFO] Framework/Detector/MagneticField/MagneticField.cc:428: Update: Magnetic field header:
 version : 1.1
 date    : 121200
 type    : "CALC/20G+"
 polarity: 1
 scale   : 0.50625 0.5075
 comment : 
Warning in <TClass::TClass>: no dictionary for class TF1Parameters is available
Fitting bin 10
Fitting bin 20
Fitting bin 30
Fitting bin 40
Fitting bin 50
Fitting bin 60
Fitting bin 70
Fitting bin 80
Fitting bin 90
Fitting bin 100
Fitting bin 110
Fitting bin 120
Fitting bin 130
Fitting bin 140
Fitting bin 150
Fitting bin 160
Fitting bin 170
Fitting bin 180
Fitting bin 190
Fitting bin 200
Fitting bin 210
Fitting bin 220
Fitting bin 230
Fitting bin 240
Fitting bin 250
Fitting bin 260
Fitting bin 270
Fitting bin 280
Fitting bin 290
Fitting bin 300
Fitting bin 310
Fitting bin 320
Fitting bin 330
Fitting bin 340
Fitting bin 350
Fitting bin 360
Fitting bin 370
Fitting bin 380
Fitting bin 390
Fitting bin 400
Fitting bin 410
Fitting bin 420
Fitting bin 430
Fitting bin 440
Fitting bin 450
Fitting bin 460
Fitting bin 470
Fitting bin 480
Fitting bin 490
Fitting bin 500
Fitting bin 510
Fitting bin 520
Fitting bin 530
Fitting bin 540
Fitting bin 550
Fitting bin 560
Fitting bin 570
Fitting bin 580
Fitting bin 590
Fitting bin 600
Fitting bin 610
Fitting bin 620
Fitting bin 630
Fitting bin 640
Fitting bin 650
Fitting bin 660
