[WARN] Framework/CentralConfig/CentralConfig.cc:319: FillMap: Explicit request to parse a file without validation. Filename = ../../config/DManagerRegisterConfig.xml
[WARN] Framework/CentralConfig/CentralConfig.cc:319: FillMap: Explicit request to parse a file without validation. Filename = ../../config/MagneticField.xml
[WARN] Framework/CentralConfig/CentralConfig.cc:319: FillMap: Explicit request to parse a file without validation. Filename = config/AcceptanceComparison.xml
[WARN] Framework/CentralConfig/CentralConfig.cc:319: FillMap: Explicit request to parse a file without validation. Filename = config/AcceptanceEventCuts.xml
[WARN] Framework/CentralConfig/CentralConfig.cc:319: FillMap: Explicit request to parse a file without validation. Filename = config/AcceptanceTrackCuts.xml
[WARN] Framework/CentralConfig/CentralConfig.cc:319: FillMap: Explicit request to parse a file without validation. Filename = config/AcceptancePhaseSpace.xml
[WARN] Framework/CentralConfig/CentralConfig.cc:319: FillMap: Explicit request to parse a file without validation. Filename = config/AcceptanceHistos.xml
[WARN] Framework/CentralConfig/CentralConfig.cc:319: FillMap: Explicit request to parse a file without validation. Filename = /afs/cern.ch/na61/Releases/SHINE/v1r4p0/config/RunFixedSettingsManager.xml
[WARN] Framework/CentralConfig/CentralConfig.cc:651: CheckFingerprints: No configuration-time MD5 fingerprint found for the following configuration files. Checking the validity of these configuration files is impossible.
  - AcceptanceComparison
  - AcceptanceHistos
  - DManagerRegisterConfig
  - AcceptanceEventCuts
  - AcceptancePhaseSpace
  - AcceptanceTrackCuts

[WARN] Framework/CentralConfig/CentralConfig.cc:682: CheckFingerprints: Incorrect MD5 fingerprints were found for the following configuration files. This implies this configuration file has been altered.
  - MagneticField

[INFO] Framework/Detector/Detector.cc:67: Detector: Config file for list of Managers: /afs/cern.ch/user/m/mpavin/Work/analysistools/config/DManagerRegisterConfig.xml
[WARN] Framework/Managers/LogInfo/RunFixedSettingsManager.cc:59: GenericGetData: 
!!!!!!!!!!!!!!!!!!!!!!!!!!!!!!!!!!!!!!!!!!!!!!!!!!!!!!!!!!!!!!!!!!
!!! Fetching run settings from                                 !!!
!!! RunFixedSettingsManager.                                   !!!
!!! Please make sure that this is intentional.                 !!!
!!!!!!!!!!!!!!!!!!!!!!!!!!!!!!!!!!!!!!!!!!!!!!!!!!!!!!!!!!!!!!!!!!
    (MagneticField magneticFieldId)

[INFO] Framework/Detector/MagneticField/MagneticField.cc:418: Update: field id=160
[INFO] Framework/Detector/MagneticField/MagneticField.cc:419: Update: loading /afs/cern.ch/na61/ReleasesDB/v2/NA49/DB/MF/calc-std+full.root
[INFO] Framework/Detector/MagneticField/MagneticField.cc:428: Update: Magnetic field header:
 version : 1.1
 date    : 311094
 type    : CALC/STD+
 polarity: 1
 scale   : 0.99783 1.0225
 comment : 
